<?xml version="1.0" encoding="UTF-8" standalone="no"?>
<!DOCTYPE svg PUBLIC "-//W3C//DTD SVG 1.1//EN" "http://www.w3.org/Graphics/SVG/1.1/DTD/svg11.dtd">
<svg width="100%" height="100%" viewBox="0 0 420 420" version="1.1" xmlns="http://www.w3.org/2000/svg" xmlns:xlink="http://www.w3.org/1999/xlink" xml:space="preserve" xmlns:serif="http://www.serif.com/" style="fill-rule:evenodd;clip-rule:evenodd;stroke-linejoin:round;stroke-miterlimit:2;">
    <g transform="matrix(1,0,0,1,-142.579,-64.439)">
        <path d="M362.41,474.26C252.23,474.26 162.59,384.623 162.59,274.44L187.688,274.44C187.688,370.78 266.063,449.16 362.408,449.16C458.748,449.16 537.128,370.777 537.128,274.44C537.128,178.1 458.745,99.72 362.408,99.72L362.408,74.618C472.588,74.618 562.228,164.255 562.228,274.438C562.224,384.618 472.583,474.258 362.408,474.258L362.41,474.26Z" style="fill-rule:nonzero;"/>
        <path d="M142.93,294.07L175.153,247.703L207.372,294.07L142.93,294.07Z" style="fill-rule:nonzero;"/>
        <path d="M361.2,128.32C351.052,128.32 342.825,136.551 342.825,146.699L342.825,274.589C342.825,284.737 351.056,292.968 361.2,292.968C371.345,292.968 379.571,284.738 379.571,274.589L379.571,146.699C379.571,136.551 371.348,128.32 361.2,128.32Z" style="fill-rule:nonzero;"/>
        <path d="M262.38,303.5C265.263,313.227 275.485,318.777 285.216,315.895L366.579,291.786C376.306,288.903 381.868,278.681 378.981,268.954C376.102,259.22 365.876,253.673 356.153,256.552L274.79,280.661C265.056,283.54 259.501,293.763 262.38,303.501L262.38,303.5Z" style="fill-rule:nonzero;"/>
    </g>
</svg>
